{
  "apps" : [{
    "name"        : "IoT Server",
    "script"      : "app.js",
    "watch"       : "/root/iot-server/",
    "ignore_watch" : [".idea", "views", "public", "node_modules"],
    "log_date_format"  : "YYYY-MM-DD HH:mm Z"
  }]
}