<?xml version="1.0" encoding="UTF-8" standalone="no"?>
<!-- Created with Inkscape (http://www.inkscape.org/) -->

<svg
   xmlns:dc="http://purl.org/dc/elements/1.1/"
   xmlns:cc="http://creativecommons.org/ns#"
   xmlns:rdf="http://www.w3.org/1999/02/22-rdf-syntax-ns#"
   xmlns:svg="http://www.w3.org/2000/svg"
   xmlns="http://www.w3.org/2000/svg"
   xmlns:sodipodi="http://sodipodi.sourceforge.net/DTD/sodipodi-0.dtd"
   xmlns:inkscape="http://www.inkscape.org/namespaces/inkscape"
   width="210mm"
   height="297mm"
   viewBox="0 0 744.09448819 1052.3622047"
   id="svg2"
   version="1.1"
   inkscape:version="0.91 r13725"
   sodipodi:docname="logo.svg">
  <defs
     id="defs4">
    <inkscape:path-effect
       effect="spiro"
       id="path-effect4229"
       is_visible="true" />
  </defs>
  <sodipodi:namedview
     id="base"
     pagecolor="#ffffff"
     bordercolor="#666666"
     borderopacity="1.0"
     inkscape:pageopacity="0.0"
     inkscape:pageshadow="2"
     inkscape:zoom="1.4"
     inkscape:cx="257.90593"
     inkscape:cy="681.27222"
     inkscape:document-units="px"
     inkscape:current-layer="layer1"
     showgrid="false"
     inkscape:connector-spacing="3"
     showguides="false"
     inkscape:guide-bbox="true"
     inkscape:window-width="1855"
     inkscape:window-height="1056"
     inkscape:window-x="1985"
     inkscape:window-y="24"
     inkscape:window-maximized="1">
    <sodipodi:guide
       position="419.71839,684.37837"
       orientation="1,0"
       id="guide18380" />
    <sodipodi:guide
       position="304.41965,686.00448"
       orientation="1,0"
       id="guide18382" />
    <sodipodi:guide
       position="362.27679,745.53573"
       orientation="0,1"
       id="guide18384" />
  </sodipodi:namedview>
  <metadata
     id="metadata7">
    <rdf:RDF>
      <cc:Work
         rdf:about="">
        <dc:format>image/svg+xml</dc:format>
        <dc:type
           rdf:resource="http://purl.org/dc/dcmitype/StillImage" />
        <dc:title></dc:title>
      </cc:Work>
    </rdf:RDF>
  </metadata>
  <g
     inkscape:label="Layer 1"
     inkscape:groupmode="layer"
     id="layer1">
    <circle
       style="fill:#2565cc;fill-opacity:1;stroke:#000000;stroke-width:4.73156881;stroke-miterlimit:4;stroke-dasharray:none;stroke-opacity:1"
       id="path3336-3-6"
       cx="153.79614"
       cy="196.98509"
       r="63.399975" />
    <circle
       style="fill:#2565cc;fill-opacity:1;stroke:#000000;stroke-width:4.73156881;stroke-miterlimit:4;stroke-dasharray:none;stroke-opacity:1"
       id="path3336-3-6-5"
       cx="529.95612"
       cy="192.1834"
       r="52.475166" />
    <circle
       style="fill:#2565cc;fill-opacity:1;stroke:#000000;stroke-width:4.73156881;stroke-miterlimit:4;stroke-dasharray:none;stroke-opacity:1"
       id="path3336-3-6-3"
       cx="618.11456"
       cy="438.60022"
       r="51.109558" />
    <circle
       style="fill:#2565cc;fill-opacity:1;stroke:#000000;stroke-width:4.73156881;stroke-miterlimit:4;stroke-dasharray:none;stroke-opacity:1"
       id="path3336-3-6-56"
       cx="388.33655"
       cy="572.45667"
       r="44.281555" />
    <circle
       style="fill:#2565cc;fill-opacity:1;stroke:#000000;stroke-width:4.73156881;stroke-miterlimit:4;stroke-dasharray:none;stroke-opacity:1"
       id="path3336-3-6-56-2"
       cx="125.43424"
       cy="487.98145"
       r="55.206367" />
    <path
       style="display:inline;fill:none;fill-rule:evenodd;stroke:#000000;stroke-width:8.65201092;stroke-linecap:butt;stroke-linejoin:round;stroke-miterlimit:4;stroke-dasharray:none;stroke-opacity:1"
       d="m 203.88672,235.84874 95.96039,74.45254"
       id="path17196"
       inkscape:connector-type="polyline"
       inkscape:connector-curvature="7"
       inkscape:connection-start="#path3336-3-6" />
    <path
       style="display:inline;fill:none;fill-rule:evenodd;stroke:#000000;stroke-width:8.65201092;stroke-linecap:butt;stroke-linejoin:round;stroke-miterlimit:4;stroke-dasharray:none;stroke-opacity:1"
       d="m 493.20493,229.63898 -77.72408,79.21386"
       id="path17198"
       inkscape:connector-type="polyline"
       inkscape:connector-curvature="7"
       inkscape:connection-start="#path3336-3-6-5" />
    <path
       style="display:inline;fill:none;fill-rule:evenodd;stroke:#000000;stroke-width:8.65201092;stroke-linecap:butt;stroke-linejoin:round;stroke-miterlimit:4;stroke-dasharray:none;stroke-opacity:1"
       d="M 570.5832,419.8154 432.1379,365.10057"
       id="path17200"
       inkscape:connector-type="polyline"
       inkscape:connector-curvature="7"
       inkscape:connection-start="#path3336-3-6-3" />
    <path
       style="display:inline;fill:none;fill-rule:evenodd;stroke:#000000;stroke-width:8.65201092;stroke-linecap:butt;stroke-linejoin:round;stroke-miterlimit:4;stroke-dasharray:none;stroke-opacity:1"
       d="M 382.43623,528.57029 370.05366,436.46944"
       id="path17202"
       inkscape:connector-type="polyline"
       inkscape:connector-curvature="7"
       inkscape:connection-start="#path3336-3-6-56" />
    <path
       style="display:inline;fill:none;fill-rule:evenodd;stroke:#000000;stroke-width:8.65201092;stroke-linecap:butt;stroke-linejoin:round;stroke-miterlimit:4;stroke-dasharray:none;stroke-opacity:1"
       d="M 173.35606,460.5745 289.82455,393.96509"
       id="path17206"
       inkscape:connector-type="polyline"
       inkscape:connector-curvature="7"
       inkscape:connection-start="#path3336-3-6-56-2" />
    <circle
       style="opacity:0.64600004;fill:#b3b3b3"
       id="path3336"
       cx="359.47452"
       cy="360.75525"
       r="98.493874" />
    <g
       id="Layer_1"
       transform="matrix(2.4338263,0,0,2.4377347,281.51791,282.68671)"
       style="opacity:1">
      <g
         id="g18286">
        <circle
           cx="32"
           cy="32"
           r="32"
           id="circle18288"
           style="fill:#e0995e" />
      </g>
      <g
         id="g18290"
         style="opacity:0.2">
        <g
           id="g18292">
          <path
             d="m 45.5,33.167 -5,0 0,-7.334 c 0,-4.687 -3.813,-8.5 -8.5,-8.5 -4.687,0 -8.5,3.813 -8.5,8.5 l 0,7.334 -5,0 0,-7.334 c 0,-7.444 6.056,-13.5 13.5,-13.5 7.444,0 13.5,6.056 13.5,13.5 l 0,7.334 z"
             id="path18294"
             inkscape:connector-curvature="0"
             style="fill:#231f20" />
        </g>
      </g>
      <g
         id="g18296">
        <path
           d="m 45.5,31.167 -5,0 0,-7.334 c 0,-4.687 -3.813,-8.5 -8.5,-8.5 -4.687,0 -8.5,3.813 -8.5,8.5 l 0,7.334 -5,0 0,-7.334 c 0,-7.444 6.056,-13.5 13.5,-13.5 7.444,0 13.5,6.056 13.5,13.5 l 0,7.334 z"
           id="path18298"
           inkscape:connector-curvature="0"
           style="fill:#4f5d73" />
      </g>
      <g
         id="g18300">
        <g
           id="g18302">
          <path
             d="m 32,32 c -2.209,0 -4,1.791 -4,4 0,1.477 0.809,2.752 2,3.445 L 30,42 c 0,1.105 0.895,2 2,2 1.105,0 2,-0.895 2,-2 l 0,-2.555 c 1.191,-0.693 2,-1.968 2,-3.445 0,-2.209 -1.791,-4 -4,-4 z"
             id="path18304"
             inkscape:connector-curvature="0"
             style="fill:#4f5d73" />
        </g>
      </g>
      <g
         id="g18306"
         style="opacity:0.2">
        <path
           d="m 47,27 -30,0 c -1.657,0 -3,1.343 -3,3 l 0,19 c 0,1.657 1.343,3 3,3 l 30,0 c 1.657,0 3,-1.343 3,-3 l 0,-19 c 0,-1.657 -1.343,-3 -3,-3 z M 34,41.445 34,44 c 0,1.105 -0.895,2 -2,2 -1.105,0 -2,-0.895 -2,-2 l 0,-2.555 C 28.809,40.752 28,39.477 28,38 c 0,-2.209 1.791,-4 4,-4 2.209,0 4,1.791 4,4 0,1.477 -0.809,2.752 -2,3.445 z"
           id="path18308"
           inkscape:connector-curvature="0"
           style="fill:#231f20" />
      </g>
      <g
         id="g18310">
        <path
           d="m 47,25 -30,0 c -1.657,0 -3,1.343 -3,3 l 0,19 c 0,1.657 1.343,3 3,3 l 30,0 c 1.657,0 3,-1.343 3,-3 l 0,-19 c 0,-1.657 -1.343,-3 -3,-3 z M 34,39.445 34,42 c 0,1.105 -0.895,2 -2,2 -1.105,0 -2,-0.895 -2,-2 l 0,-2.555 C 28.809,38.752 28,37.477 28,36 c 0,-2.209 1.791,-4 4,-4 2.209,0 4,1.791 4,4 0,1.477 -0.809,2.752 -2,3.445 z"
           id="path18312"
           inkscape:connector-curvature="0"
           style="fill:#ffffff" />
      </g>
    </g>
  </g>
</svg>
